[gd_scene load_steps=3 format=2]

[ext_resource path="res://assets/sprites/defendersprites.png" type="Texture" id=1]
[ext_resource path="res://scenes/LanderRadarBlip.gd" type="Script" id=2]

[node name="LanderRadarBlip" type="Sprite" index="0"]

scale = Vector2( 0.2, 0.2 )
texture = ExtResource( 1 )
region_enabled = true
region_rect = Rect2( 561, 53, 36, 33 )
script = ExtResource( 2 )
_sections_unfolded = [ "Region", "Transform" ]

[node name="Astronaut" type="Sprite" parent="." index="0"]

visible = false
position = Vector2( -7.07024, 32.2402 )
texture = ExtResource( 1 )
region_enabled = true
region_rect = Rect2( 329, 1, 12, 32 )
_sections_unfolded = [ "Region" ]


