[gd_scene load_steps=4 format=2]

[ext_resource path="res://scenes/MutantPath1.gd" type="Script" id=1]
[ext_resource path="res://scenes/Mutant.tscn" type="PackedScene" id=2]

[sub_resource type="Curve2D" id=1]

bake_interval = 5.0
_data = {
"points": PoolVector2Array( 0, 0, 0, 0, -0.147156, -3.27922, -25.0873, 2.20064, 53.1858, 4.43215, 38.6342, 7.80115, 0, 0, 10.5631, -2.64077, 89.6039, 15.5574, 0, 0, 22.0064, 24.6472, 123.953, 41.0423, 0, 0, -35.2103, 78.3429, 121.737, 111.957, 0, 0, 58.5371, 24.6472, 129.493, 190.627, 0, 0, -2.20064, -45.7734, 187.111, 168.467, 0, 0, 55.0161, -42.2523, 234.757, 99.7683, -34.33, 36.9708, 29.4886, -28.1682, 235.865, 47.6905, -27.7281, 26.4077, 93.7474, -15.8446, 284.771, 50.8769, 0, 0, -0.440129, 37.4109, 382.126, 79.8236, 0, 0, 18.4854, 31.2491, 393.206, 135.225, 0, 0, -21.1262, 34.33, 398.746, 190.627, 0, 0, -36.5307, 49.7345, 365.84, 230.266, 0, 0, -13.2039, 29.4886, 325.348, 293.645, 0, 0, 32.1294, 47.5339, 343.344, 355.725, 0, 0, 51.495, -12.3236, 431.987, 391.182, 0, 0, 21.1262, -31.6893, 490.714, 355.694, 0, 0, 6.60193, -59.8575, 510.658, 281.456, 0, 0, -27.7281, -28.6084, 492.93, 198.353, 0, 0, -27.288, -49.7345, 455.256, 152.923, 0, 0, 46.6536, -14.9644, 463.013, 88.6571, 0, 0, 58.9772, 13.2039, 557.196, 89.7651, 0, 0, 17.6051, 15.8446, 628.11, 136.303, 0, 0, 0.440129, 20.686, 633.65, 210.541, 0, 0, -3.0809, 7.48218, 613.492, 264.926, 0, 0, 0, 0, 582.681, 302.508, -22.0064, -20.686, 44.0129, 20.686, 587.113, 371.207, 0, 0, 45.7734, 31.6893, 644.741, 399.459, 0, 0, 27.7281, -18.0453, 713.429, 398.908, -9.2427, 42.2523, 14.9644, -62.4982, 747.291, 321.556, -4.84141, 56.3364, 2.20064, -48.4141, 765.337, 221.555, 0, 0, -20.2459, -27.7281, 749.052, 147.118, 35.2103, 17.6051, -28.6084, -17.6051, 645.182, 121.609, 0, 0, 53.6957, -23.7669, 692.376, 60.9562, 0, 0, 22.0064, 19.3657, 796.532, 59.8481, 0, 0, 8.36244, 0.880257, 826.955, 98.2824, 0, 0, -6.1618, 25.5275, 820.909, 200.569, 0, 0, -3.0809, 37.8511, 818.693, 316.913, 0, 0, 21.5663, 100.789, 825.341, 403.34, 0, 0, -50.6148, -23.7669, 769.939, 460.958, 0, 0, -94.1875, 60.7377, 674.648, 478.686, 0, 0, -6.1618, -41.8122, 564.952, 465.39, 0, 0, -28.1682, -7.04206, 513.982, 423.284, 0, 0, -54.1358, 9.68283, 441.96, 429.933, 0, 0, -25.5275, 19.8058, 361.073, 474.254, 0, 0, 18.9255, 49.7345, 353.317, 524.116, 0, 0, 40.0517, 2.20064, 446.392, 559.573, 0, 0, 27.7281, 3.52103, 517.796, 558.109, 0, 0, 56.3364, -36.9708, 590.926, 527.084, 0, 0, -36.9708, -25.0873, 599.79, 465.034, 0, 0, 0.440129, -50.6148, 568.765, 386.363, 0, 0, -14.9644, -29.9287, 547.713, 302.152, 0, 0, 27.7281, -17.165, 592.034, 250.074, 0, 0, 10.123, 25.5275, 640.788, 265.587, 0, 0, 20.2459, 7.92231, 716.134, 288.856, 0, 0, -2.64077, 3.0809, 778.184, 293.288, 0, 0, 29.4886, -4.84141, 861.287, 291.072, 0, 0, 0, 0, 910.041, 266.695, 0, 0, 23.3268, -23.7669, 937.199, 243.996, 0, 0, 4.84141, -36.0905, 956.877, 180.128, 0, 0, -4.84141, -15.4045, 930.91, 119.72, 0, 0, -30.809, -0.440129, 870.717, 108.815, 0, 0, -50.6148, 4.40129, 796.478, 121.004, 0, 0, -32.1294, 26.4077, 727.78, 154.245, 0, 0, -18.9255, 0.440129, 673.974, 172.536, 0, 0, -1.32039, -37.4109, 655.757, 113.248, 0, 0, -7.92231, -16.7249, 639.137, 40.1171, 0, 0, -31.2491, -12.7637, 594.815, 10.2001, 0, 0, -22.0064, 15.4045, 527.225, 14.6322, 0, 0, -12.3236, 17.6051, 502.76, 37.1595, 2.20064, -4.84141, 25.5275, 36.9708, 521.685, 93.1293, 0, 0, 3.96116, 17.6051, 537.09, 149.026, 0, 0, -2.20064, 18.0453, 526.117, 194.134, 0, 0, -13.644, 21.5663, 497.308, 239.564, 0, 0, -52.3753, -6.1618, 443.014, 243.996, 0, 0, 6.1618, -4.84141, 403.125, 271.697, 0, 0, -12.7637, 8.36244, 400.909, 303.83, 0, 0, 8.36244, 15.8446, 398.693, 347.043, 0, 0, 3.0809, 19.3657, 398.693, 384.717, 0, 0, -51.495, 18.0453, 344.399, 410.202, 0, 0, -13.644, 4.84141, 270.16, 422.39, 0, 0, -17.6051, -17.165, 245.783, 401.337, 0, 0, 2.64077, 1.76051, 225.839, 311.586, 0, 0, -5.72167, -41.3721, 211.434, 236.24, -0.440129, 0, 58.5371, -35.2103, 230.271, 178.622, 0, 0, 0, -25.9676, 283.457, 129.868, 0, 0, 20.686, 5.72167, 336.642, 102.167, 0, 0, 7.04206, -35.2103, 367.667, 65.6019, 0, 0, -69.9804, -10.5631, 343.291, 27.9287, 0, 0, -26.4077, -10.123, 271.268, 11.3081, 0, 0, -21.0527, 5.54019, 204.786, 11.3081, 0, 0, 1.10804, 33.2411, 194.814, 46.7653, 0, 0, 2.05003, 12.8255, 180.409, 113.248, 0, 0, -1.10804, 25.4849, 182.625, 129.868, -19.9447, -37.6733, 34.3492, 80.8867, 183.733, 194.134, 0, 0, -39.8894, -2.21608, 177.085, 276.129, 0, 0, -22.1608, 16.6206, 126.115, 302.722, 0, 0, -4.43215, -25.4849, 70.7133, 298.29, 0, 0, -115.236, -70.9144, 38.5803, 270.589, 0, 0, 68.6983, 25.4849, 20.8517, 191.918, 0, 0, -44.3215, -23.2688, 49.6606, 111.031, 0, 0, 33.2411, -28.809, 76.2535, 71.1421, 0, 0, -6.64823, -22.1608, 46.3365, 37.901, 0, 0, 0, 0, 10.8793, 63.3859, 0, 0, -57.618, 11.0804, -31.2261, 76.6823, 0, 0, -2.21608, -32.1331, -31.2261, 20.1724, 0, 0, 0, 0, 0.906982, -1.98836 )
}

[node name="MutantPath1" type="Path2D" index="0"]

self_modulate = Color( 0.5, 0.6, 1, 0.7 )
scale = Vector2( 1, 0.8 )
curve = SubResource( 1 )
script = ExtResource( 1 )
_sections_unfolded = [ "Transform" ]
mob_speed = 250

[node name="Follow" type="PathFollow2D" parent="." index="0"]

position = Vector2( -0.147156, -3.27922 )
offset = 0.0
h_offset = 0.0
v_offset = 0.0
rotate = false
cubic_interp = true
loop = true
lookahead = 4.0
_sections_unfolded = [ "Transform" ]

[node name="Mutant" parent="Follow" index="0" instance=ExtResource( 2 )]

_sections_unfolded = [ "Transform" ]


