[gd_scene load_steps=2 format=2]

[ext_resource path="res://assets/sprites/defendersprites.png" type="Texture" id=1]

[node name="SaucerRadarBlip" type="Sprite" index="0"]

scale = Vector2( 0.2, 0.2 )
texture = ExtResource( 1 )
region_enabled = true
region_rect = Rect2( 453, 105, 44, 16 )
_sections_unfolded = [ "Region", "Transform" ]


