[gd_scene load_steps=5 format=2]

[ext_resource path="res://scenes/SquareBomb.gd" type="Script" id=1]
[ext_resource path="res://assets/images/square_bomb.png" type="Texture" id=2]
[ext_resource path="res://assets/sound/shootlanderbomb.wav" type="AudioStream" id=3]

[sub_resource type="CircleShape2D" id=1]

custom_solver_bias = 0.0
radius = 3.76908

[node name="SquareBomb" type="Area2D"]

input_pickable = true
gravity_vec = Vector2( 0, 1 )
gravity = 98.0
linear_damp = 0.1
angular_damp = 1.0
audio_bus_override = false
audio_bus_name = "Master"
script = ExtResource( 1 )
speed_x = 1
speed_y = 0

[node name="Collision" type="CollisionShape2D" parent="." index="0"]

shape = SubResource( 1 )
_sections_unfolded = [ "Transform", "Visibility" ]

[node name="Sprite" type="Sprite" parent="." index="1"]

modulate = Color( 0.359375, 0, 1, 1 )
texture = ExtResource( 2 )
_sections_unfolded = [ "Material", "Transform", "Visibility" ]

[node name="Tween" type="Tween" parent="." index="2"]

repeat = false
playback_process_mode = 1
playback_speed = 1.0
playback/active = false
playback/repeat = false
playback/speed = 1.0

[node name="Timer" type="Timer" parent="." index="3"]

process_mode = 1
wait_time = 0.05
one_shot = true
autostart = false

[node name="SelfDetonateTimer" type="Timer" parent="." index="4"]

process_mode = 1
wait_time = 0.05
one_shot = true
autostart = false

[node name="AudioStreamPlayer" type="AudioStreamPlayer" parent="." index="5"]

stream = ExtResource( 3 )
volume_db = 0.0
pitch_scale = 1.0
autoplay = true
mix_target = 0
bus = "Master"

[node name="FadeOutTimer" type="Timer" parent="." index="6"]

process_mode = 1
wait_time = 3.0
one_shot = true
autostart = true

[connection signal="area_entered" from="." to="." method="_on_SquareBomb_area_entered"]

[connection signal="tween_completed" from="Tween" to="." method="_on_Tween_tween_completed"]

[connection signal="timeout" from="Timer" to="." method="_on_Timer_timeout"]

[connection signal="timeout" from="SelfDetonateTimer" to="." method="_on_SelfDetonateTimer_timeout"]

[connection signal="timeout" from="FadeOutTimer" to="." method="_on_FadeOutTimer_timeout"]


