[gd_scene load_steps=4 format=2]

[ext_resource path="res://scenes/SquarePath1.gd" type="Script" id=1]
[ext_resource path="res://scenes/Square.tscn" type="PackedScene" id=2]

[sub_resource type="Curve2D" id=1]

bake_interval = 5.0
_data = {
"points": PoolVector2Array( 0, 0, 26.0001, -11, 56.8073, 187.087, -21.3003, -0.47334, 48.0002, -14.0001, 119.237, 175.841, 0, 0, 29.0001, -9.00004, 185.237, 163.841, 0, 0, 34.0001, -5.00002, 252.238, 161.841, 0, 0, 3.00001, 20.0001, 304.238, 176.841, 0, 0, 26.0001, 11, 346.238, 217.841, 0, 0, 37.0001, 36.0001, 392.238, 248.841, 0, 0, 37.0001, 16.0001, 454.238, 288.841, 0, 0, 44.0002, -1, 527.239, 306.841, 0, 0, 34.0001, -17.0001, 593.239, 296.841, 0, 0, 22.0001, -36.0001, 646.239, 258.841, 0, 0, 24.0001, -23.0001, 683.239, 205.841, 0, 0, 49.0002, -5.00002, 745.24, 177.841, 0, 0, -6.00002, -3.00001, 824.24, 175.841, -70.0003, -9.00004, 38.0001, 1, 915.24, 179.841, 0, 0, 9.00004, 11, 973.241, 210.841, 0, 0, 16.0001, 17.0001, 997.241, 256.841, 0, 0, -9.00004, 26.0001, 998.241, 356.841, 0, 0, -48.0002, 13.0001, 964.24, 389.842, 0, 0, -65.0003, -3.00001, 871.24, 390.842, 0, 0, -33.0001, -4.00002, 782.24, 371.841, 0, 0, -14.0001, -18.0001, 734.24, 337.841, 0, 0, -26.0001, -13.0001, 693.239, 295.841, 0, 0, 0, -7.00003, 637.239, 238.841, 0, 0, -30.0001, -3.00001, 578.239, 211.841, 0, 0, -40.0002, 6.00002, 491.239, 211.841, 0, 0, 0, 0, 395.238, 247.841, 0, 0, 0, 0, 346.238, 302.841, 0, 0, 0, 0, 259.238, 336.841, 0, 0, 0, 0, 179.237, 351.841, 0, 0, 0, 0, 105.237, 356.841, 0, 0, -42.0002, 0, 33.2368, 357.841, 0, 0, -19.0001, -13.0001, -42.7635, 326.841, 0, 0, -2.00001, -9.00004, -71.7636, 277.841, 0, 0, -1, -13.0001, -71.7636, 232.841, 0, 0, 6.00002, -11, -42.7635, 201.841, -18.183, -3.95282, 19.8489, 6.62456, 7.23671, 185.841, 1.5778, 1.42002, 0, 0, 57.1229, 186.771 )
}

[node name="SquarePath1" type="Path2D"]

self_modulate = Color( 0.5, 0.6, 1, 0.7 )
position = Vector2( -0.157776, 0 )
curve = SubResource( 1 )
script = ExtResource( 1 )
speed = 150

[node name="Follow" type="PathFollow2D" parent="." index="0"]

position = Vector2( 56.8073, 187.087 )
rotation = -0.390785
offset = 0.0
h_offset = 0.0
v_offset = 0.0
rotate = true
cubic_interp = true
loop = true
lookahead = 4.0

[node name="Square" parent="Follow" index="0" instance=ExtResource( 2 )]


